Task 7
================
Marife Anunciado
March 3, 2017

Using the nycflights13::weather
-------------------------------

Outliers in wind speed was rejected through a function **filter**, in this case wind\_speed of over a value of 250 was discarded.

    ## Source: local data frame [2,019 x 3]
    ## Groups: origin, wind_dir [114]
    ## 
    ##    origin wind_dir   med_WS
    ##     <chr>    <dbl>    <dbl>
    ## 1     EWR        0  0.00000
    ## 2     EWR       10  3.45234
    ## 3     EWR       10  4.60312
    ## 4     EWR       10  5.75390
    ## 5     EWR       10  6.90468
    ## 6     EWR       10  8.05546
    ## 7     EWR       10  9.20624
    ## 8     EWR       10 10.35702
    ## 9     EWR       10 11.50780
    ## 10    EWR       10 12.65858
    ## # ... with 2,009 more rows
…
